2019:03:25:21:37:13 ('172.22.94.228', 8006) connected
2019:03:25:21:37:13 ('172.22.94.228', 8002) connected
2019:03:25:21:37:13 ('172.22.94.228', 8004) connected
2019:03:25:21:37:13 ('172.22.94.228', 8001) connected
2019:03:25:21:37:13 ('172.22.94.228', 8010) connected
2019:03:25:21:37:13 ('172.22.94.228', 8005) connected
2019:03:25:21:37:13 ('172.22.94.228', 8007) connected
2019:03:25:21:37:13 ('172.22.94.228', 8008) connected
2019:03:25:21:37:13 ('172.22.94.228', 8015) connected
2019:03:25:21:37:13 ('172.22.94.228', 8003) connected
2019:03:25:21:37:13 ('172.22.94.228', 8019) connected
2019:03:25:21:37:13 ('172.22.94.228', 8017) connected
2019:03:25:21:37:13 ('172.22.94.228', 8016) connected
2019:03:25:21:37:17 ('172.22.94.228', 8020) connected
2019:03:25:21:37:17 ('172.22.94.228', 8009) connected
2019:03:25:21:37:17 ('172.22.94.228', 8011) connected
2019:03:25:21:37:17 ('172.22.94.228', 8013) connected
2019:03:25:21:37:29 ('172.22.94.228', 8012) connected
2019:03:25:21:37:33 ('172.22.94.228', 8018) connected
2019:03:25:21:38:01 ('172.22.94.228', 8014) connected
