2019:03:25:23:55:23 ('172.22.156.219', 5030) connected
2019:03:25:23:55:23 ('172.22.94.229', 5068) connected
2019:03:25:23:55:23 ('172.22.156.219', 5026) connected
2019:03:25:23:55:26 ('172.22.94.228', 5017) connected
2019:03:25:23:55:26 ('172.22.94.228', 5010) connected
2019:03:25:23:55:26 ('172.22.94.228', 5020) connected
2019:03:25:23:55:28 ('172.22.158.219', 5060) connected
2019:03:25:23:55:28 ('172.22.156.219', 5040) connected
2019:03:25:23:55:28 ('172.22.94.228', 5006) connected
2019:03:25:23:55:28 ('172.22.94.228', 5003) connected
2019:03:25:23:55:28 ('172.22.156.219', 5035) connected
2019:03:25:23:55:29 ('172.22.94.228', 5012) connected
2019:03:25:23:55:29 ('172.22.156.219', 5034) connected
2019:03:25:23:55:29 ('172.22.94.229', 5074) connected
2019:03:25:23:55:29 ('172.22.158.219', 5044) connected
2019:03:25:23:55:31 ('172.22.158.219', 5047) connected
2019:03:25:23:55:31 ('172.22.158.219', 5041) connected
2019:03:25:23:55:32 ('172.22.94.229', 5065) connected
2019:03:25:23:55:32 ('172.22.156.219', 5028) connected
2019:03:25:23:55:32 ('172.22.94.228', 5005) connected
2019:03:25:23:55:32 ('172.22.158.219', 5058) connected
2019:03:25:23:55:32 ('172.22.156.219', 5027) connected
2019:03:25:23:55:33 ('172.22.94.229', 5077) connected
2019:03:25:23:55:36 ('172.22.94.228', 5001) connected
2019:03:25:23:55:36 ('172.22.94.229', 5075) connected
2019:03:25:23:55:36 ('172.22.158.219', 5046) connected
2019:03:25:23:55:36 ('172.22.156.219', 5024) connected
2019:03:25:23:55:36 ('172.22.94.228', 5014) connected
2019:03:25:23:55:37 ('172.22.94.228', 5009) connected
2019:03:25:23:55:37 ('172.22.156.219', 5032) connected
2019:03:25:23:55:37 ('172.22.158.219', 5049) connected
2019:03:25:23:55:39 ('172.22.94.228', 5008) connected
2019:03:25:23:55:39 ('172.22.158.219', 5045) connected
2019:03:25:23:55:39 ('172.22.94.228', 5011) connected
2019:03:25:23:55:39 ('172.22.156.219', 5031) connected
2019:03:25:23:55:40 ('172.22.156.220', 5092) connected
2019:03:25:23:55:40 ('172.22.94.228', 5002) connected
2019:03:25:23:55:40 ('172.22.158.219', 5048) connected
2019:03:25:23:55:41 ('172.22.158.219', 5051) connected
2019:03:25:23:55:41 ('172.22.94.228', 5016) connected
2019:03:25:23:55:42 ('172.22.156.219', 5022) connected
2019:03:25:23:55:42 ('172.22.156.219', 5038) connected
2019:03:25:23:55:42 ('172.22.158.219', 5053) connected
2019:03:25:23:55:42 ('172.22.156.219', 5039) connected
2019:03:25:23:55:42 ('172.22.158.219', 5056) connected
2019:03:25:23:55:43 ('172.22.94.229', 5061) connected
2019:03:25:23:55:43 ('172.22.158.219', 5050) connected
2019:03:25:23:55:44 ('172.22.94.229', 5070) connected
2019:03:25:23:55:45 ('172.22.94.228', 5013) connected
2019:03:25:23:55:45 ('172.22.158.219', 5057) connected
2019:03:25:23:55:45 ('172.22.156.219', 5029) connected
2019:03:25:23:55:45 ('172.22.94.228', 5015) connected
2019:03:25:23:55:45 ('172.22.94.229', 5080) connected
2019:03:25:23:55:45 ('172.22.156.219', 5025) connected
2019:03:25:23:55:45 ('172.22.158.219', 5059) connected
2019:03:25:23:55:46 ('172.22.158.219', 5054) connected
2019:03:25:23:55:46 ('172.22.156.220', 5097) connected
2019:03:25:23:55:46 ('172.22.156.220', 5085) connected
2019:03:25:23:55:47 ('172.22.156.219', 5023) connected
2019:03:25:23:55:47 ('172.22.94.228', 5019) connected
2019:03:25:23:55:49 ('172.22.94.229', 5071) connected
2019:03:25:23:55:49 ('172.22.94.228', 5018) connected
2019:03:25:23:55:49 ('172.22.156.220', 5089) connected
2019:03:25:23:55:50 ('172.22.94.229', 5063) connected
2019:03:25:23:55:50 ('172.22.156.219', 5036) connected
2019:03:25:23:55:51 ('172.22.156.219', 5033) connected
2019:03:25:23:55:51 ('172.22.156.219', 5037) connected
2019:03:25:23:55:52 ('172.22.94.229', 5069) connected
2019:03:25:23:55:52 ('172.22.156.220', 5086) connected
2019:03:25:23:55:53 ('172.22.158.219', 5052) connected
2019:03:25:23:55:53 ('172.22.156.219', 5021) connected
2019:03:25:23:55:53 ('172.22.94.228', 5007) connected
2019:03:25:23:55:56 ('172.22.94.228', 5004) connected
2019:03:25:23:55:57 ('172.22.94.229', 5078) connected
2019:03:25:23:55:57 ('172.22.156.220', 5099) connected
2019:03:25:23:55:57 ('172.22.158.219', 5043) connected
2019:03:25:23:55:58 ('172.22.94.229', 5066) connected
2019:03:25:23:55:59 ('172.22.158.219', 5055) connected
2019:03:25:23:56:00 ('172.22.156.220', 5098) connected
2019:03:25:23:56:00 ('172.22.156.220', 5081) connected
2019:03:25:23:56:02 ('172.22.94.229', 5079) connected
2019:03:25:23:56:03 ('172.22.94.229', 5073) connected
2019:03:25:23:56:03 ('172.22.156.220', 5096) connected
2019:03:25:23:56:04 ('172.22.156.220', 5095) connected
2019:03:25:23:56:04 ('172.22.156.220', 5082) connected
2019:03:25:23:56:08 ('172.22.156.220', 5093) connected
2019:03:25:23:56:09 ('172.22.156.220', 5083) connected
2019:03:25:23:56:10 ('172.22.156.220', 5088) connected
2019:03:25:23:56:12 ('172.22.156.220', 5094) connected
2019:03:25:23:56:13 ('172.22.94.229', 5072) connected
2019:03:25:23:56:14 ('172.22.156.220', 5100) connected
2019:03:25:23:56:15 ('172.22.94.229', 5064) connected
2019:03:25:23:56:20 ('172.22.156.220', 5091) connected
2019:03:25:23:56:28 ('172.22.94.229', 5067) connected
2019:03:25:23:56:29 ('172.22.94.229', 5062) connected
2019:03:25:23:56:31 ('172.22.156.220', 5087) connected
2019:03:25:23:56:31 ('172.22.158.219', 5042) connected
2019:03:25:23:56:38 ('172.22.156.220', 5090) connected
2019:03:25:23:56:42 ('172.22.94.229', 5076) connected
2019:03:25:23:56:49 ('172.22.156.220', 5084) connected
2019:03:25:23:57:36 ('172.22.94.229', 5064) disconnected
2019:03:25:23:57:36 ('172.22.156.220', 5083) disconnected
2019:03:25:23:57:36 ('172.22.94.228', 5019) disconnected
2019:03:25:23:57:36 ('172.22.156.219', 5035) disconnected
2019:03:25:23:57:36 ('172.22.158.219', 5045) disconnected
2019:03:25:23:57:36 ('172.22.94.229', 5061) disconnected
2019:03:25:23:57:36 ('172.22.94.228', 5016) disconnected
2019:03:25:23:57:36 ('172.22.94.228', 5005) disconnected
2019:03:25:23:57:36 ('172.22.94.228', 5010) disconnected
2019:03:25:23:57:36 ('172.22.158.219', 5044) disconnected
2019:03:25:23:57:36 ('172.22.94.228', 5015) disconnected
2019:03:25:23:57:36 ('172.22.94.228', 5018) disconnected
2019:03:25:23:57:36 ('172.22.156.219', 5033) disconnected
2019:03:25:23:57:36 ('172.22.156.220', 5099) disconnected
2019:03:25:23:57:36 ('172.22.94.228', 5006) disconnected
2019:03:25:23:57:36 ('172.22.94.229', 5070) disconnected
2019:03:25:23:57:36 ('172.22.156.220', 5090) disconnected
2019:03:25:23:57:36 ('172.22.156.219', 5032) disconnected
2019:03:25:23:57:37 ('172.22.94.229', 5065) disconnected
2019:03:25:23:57:37 ('172.22.94.228', 5008) disconnected
2019:03:25:23:57:37 ('172.22.156.219', 5031) disconnected
2019:03:25:23:57:37 ('172.22.156.220', 5097) disconnected
2019:03:25:23:57:37 ('172.22.94.229', 5069) disconnected
2019:03:25:23:57:37 ('172.22.156.219', 5037) disconnected
2019:03:25:23:57:37 ('172.22.94.229', 5071) disconnected
2019:03:25:23:57:37 ('172.22.156.220', 5099) connected
2019:03:25:23:57:37 ('172.22.158.219', 5057) disconnected
2019:03:25:23:57:37 ('172.22.156.220', 5093) disconnected
2019:03:25:23:57:37 ('172.22.156.219', 5024) disconnected
2019:03:25:23:57:37 ('172.22.156.219', 5038) disconnected
2019:03:25:23:57:37 ('172.22.94.228', 5011) disconnected
2019:03:25:23:57:37 ('172.22.156.220', 5099) disconnected
2019:03:25:23:57:37 ('172.22.94.228', 5012) disconnected
2019:03:25:23:57:37 ('172.22.158.219', 5046) disconnected
2019:03:25:23:57:38 ('172.22.94.228', 5013) disconnected
2019:03:25:23:57:38 ('172.22.156.220', 5100) disconnected
2019:03:25:23:57:38 ('172.22.94.228', 5020) disconnected
2019:03:25:23:57:38 ('172.22.156.219', 5040) disconnected
2019:03:25:23:57:38 ('172.22.158.219', 5051) disconnected
2019:03:25:23:57:38 ('172.22.94.229', 5074) disconnected
2019:03:25:23:57:39 ('172.22.94.228', 5009) disconnected
2019:03:25:23:57:39 ('172.22.156.219', 5034) disconnected
2019:03:25:23:57:39 ('172.22.94.228', 5002) disconnected
2019:03:25:23:57:39 ('172.22.156.219', 5030) disconnected
2019:03:25:23:57:39 ('172.22.94.229', 5067) disconnected
2019:03:25:23:57:40 ('172.22.156.220', 5089) disconnected
2019:03:25:23:57:40 ('172.22.158.219', 5053) disconnected
2019:03:25:23:57:40 ('172.22.156.220', 5096) disconnected
2019:03:25:23:57:40 ('172.22.94.229', 5080) disconnected
2019:03:25:23:57:40 ('172.22.94.228', 5001) disconnected
2019:03:25:23:57:40 ('172.22.156.220', 5081) disconnected
2019:03:25:23:57:41 ('172.22.94.228', 5017) disconnected
2019:03:25:23:59:29 ('172.22.156.219', 5022) disconnected
2019:03:25:23:59:30 ('172.22.158.219', 5056) disconnected
2019:03:25:23:59:30 ('172.22.94.228', 5003) disconnected
